<?xml version="1.0" encoding="utf-8"?>
<!-- Generator: Adobe Illustrator 18.1.1, SVG Export Plug-In . SVG Version: 6.00 Build 0)  -->
<svg version="1.1" id="Layer_1" xmlns="http://www.w3.org/2000/svg" xmlns:xlink="http://www.w3.org/1999/xlink" x="0px" y="0px"
	 viewBox="0 0 172.9 157.9" enable-background="new 0 0 172.9 157.9" xml:space="preserve">
<g>
	<defs>
		<path id="SVGID_1_" d="M86.5,0h72.3c7.8,0,14.2,6.3,14.2,14.2v129.6c0,7.8-6.3,14.2-14.2,14.2H14.2c-7.8,0-14.2-6.3-14.2-14.2
			V14.2C0,6.3,6.3,0,14.2,0"/>
	</defs>
	<clipPath id="SVGID_2_">
		<use xlink:href="#SVGID_1_"  overflow="visible"/>
	</clipPath>
	<g clip-path="url(#SVGID_2_)">
		<defs>
			<rect id="SVGID_3_" x="40.3" y="23.1" width="92.4" height="111.7"/>
		</defs>
		<clipPath id="SVGID_4_">
			<use xlink:href="#SVGID_3_"  overflow="visible"/>
		</clipPath>
		<path clip-path="url(#SVGID_4_)" fill="#FFFFFF" d="M95.8,94.5c-1.9,0-2.6,1.9-2.6,3.5c0,1.6,0.7,3.5,2.6,3.5
			c1.9,0,2.6-1.9,2.6-3.5C98.4,96.4,97.7,94.5,95.8,94.5"/>
		<path clip-path="url(#SVGID_4_)" fill="#FFFFFF" d="M82.5,94.5c-1.9,0-2.6,1.9-2.6,3.5c0,1.6,0.7,3.5,2.6,3.5
			c1.9,0,2.6-1.9,2.6-3.5C85.1,96.4,84.4,94.5,82.5,94.5"/>
		<path clip-path="url(#SVGID_4_)" fill="#FFFFFF" d="M100.1,41.5c0-3-2-5.3-5.1-5.3h-5.1v10.6h5.1C98.1,46.8,100.1,44.5,100.1,41.5
			"/>
		<path clip-path="url(#SVGID_4_)" fill="#FFFFFF" d="M113.7,23.1H60c-5.1,0-8.8,3.3-8.8,9.2v51.1c0,20,16.1,34.6,35.7,34.6
			c19.4,0,35.6-14.9,35.6-34.6V32.3C122.5,26.4,118.7,23.1,113.7,23.1 M82.3,33.6c0-2.3,1.4-3.9,3.9-3.9h8.8
			c7.3,0,12.8,4.8,12.8,11.9c0,7.3-5.6,11.8-12.5,11.8h-5.5v16.3c0,2.5-1.6,3.9-3.7,3.9c-2.1,0-3.7-1.4-3.7-3.9V33.6z M71.6,99.1
			c0,2.8-1.9,3.8-3.8,3.8s-3.8-1-3.8-3.8V94c0-0.5,0.3-0.8,0.8-0.8s0.8,0.3,0.8,0.8V99c0,1.6,0.7,2.5,2.2,2.5s2.2-0.9,2.2-2.5V94
			c0-0.5,0.3-0.8,0.8-0.8s0.8,0.3,0.8,0.8V99.1z M77,98.9h-3.7c-0.4,0-0.7-0.3-0.7-0.7c0-0.4,0.3-0.7,0.7-0.7H77
			c0.4,0,0.7,0.3,0.7,0.7C77.7,98.6,77.4,98.9,77,98.9z M82.6,102.9c-1.3,0-2.1-0.7-2.5-1.3h0v4.2c0,0.5-0.3,0.8-0.8,0.8
			c-0.5,0-0.8-0.3-0.8-0.8V94c0-0.5,0.3-0.8,0.8-0.8c0.5,0,0.8,0.3,0.8,0.8v0.5h0c0.4-0.9,1.3-1.3,2.5-1.3c2.6,0,4.1,2.3,4.1,4.9
			C86.7,100.5,85.2,102.9,82.6,102.9z M89.9,102c0,0.5-0.3,0.8-0.8,0.8c-0.5,0-0.8-0.3-0.8-0.8V89.8c0-0.5,0.3-0.8,0.8-0.8
			c0.5,0,0.8,0.3,0.8,0.8V102z M99.9,102.1c0,0.6-0.4,0.8-0.7,0.8c-0.3,0-0.7-0.2-0.7-0.8v-0.7h0c-0.7,1-1.6,1.4-2.6,1.4
			c-2.7,0-4.2-2.3-4.2-4.9c0-2.5,1.5-4.9,4.2-4.9c1.1,0,1.9,0.5,2.6,1.3h0v-0.5c0-0.6,0.4-0.8,0.7-0.8c0.3,0,0.7,0.2,0.7,0.8V102.1z
			 M101.2,69.3c0,8.4-6.9,14.7-15.1,14.7c-8.3,0-15.2-6.2-15.2-14.7V51.5c0-2.5,1.6-3.9,3.7-3.9c2.1,0,3.7,1.4,3.7,3.9v17.4
			c0,4.6,2.9,8.2,7.7,8.2c4.5,0,7.6-3.8,7.6-8.2v-9.2c0-2.5,1.6-3.9,3.7-3.9c2.1,0,3.7,1.4,3.7,3.9V69.3z M109.1,102
			c0,0.5-0.3,0.8-0.8,0.8c-0.5,0-0.8-0.3-0.8-0.8V97c0-1.6-0.7-2.5-2.2-2.5c-1.5,0-2.2,0.9-2.2,2.5v5.1c0,0.5-0.3,0.8-0.8,0.8
			s-0.8-0.3-0.8-0.8v-5.1c0-2.8,1.9-3.8,3.8-3.8c1.9,0,3.8,1,3.8,3.8V102z"/>
	</g>
</g>
</svg>
