<?xml version="1.0" encoding="utf-8"?>
<!-- Generator: Adobe Illustrator 16.0.0, SVG Export Plug-In . SVG Version: 6.00 Build 0)  -->
<!DOCTYPE svg PUBLIC "-//W3C//DTD SVG 1.1//EN" "http://www.w3.org/Graphics/SVG/1.1/DTD/svg11.dtd">
<svg version="1.1" id="Layer_1" xmlns="http://www.w3.org/2000/svg" xmlns:xlink="http://www.w3.org/1999/xlink" x="0px" y="0px"
	 width="100px" height="100px" viewBox="0 0 100 100" enable-background="new 0 0 100 100" xml:space="preserve">
<g>
	<defs>
		<rect id="SVGID_1_" width="99.672" height="101.117"/>
	</defs>
	<clipPath id="SVGID_2_">
		<use xlink:href="#SVGID_1_"  overflow="visible"/>
	</clipPath>
	<g clip-path="url(#SVGID_2_)">
		<defs>
			<rect id="SVGID_3_" x="1.652" y="2.948" width="95.775" height="83.675"/>
		</defs>
		<clipPath id="SVGID_4_">
			<use xlink:href="#SVGID_3_"  overflow="visible"/>
		</clipPath>
		<path clip-path="url(#SVGID_4_)" fill="#FFFFFF" d="M53.889,7.8c0-2.997,1.752-4.852,4.539-4.852s4.537,1.855,4.537,4.852v29.095
			c0,9.389,4.127,14.342,12.693,14.342s12.689-4.953,12.689-14.342V7.8c0-2.997,1.756-4.852,4.541-4.852s4.539,1.855,4.539,4.852
			v29.403c0,16.098-10.73,21.875-21.77,21.875s-21.77-5.777-21.77-21.875"/>
		<path clip-path="url(#SVGID_4_)" fill="#FFFFFF" d="M45.196,54.229c0,2.994-1.754,4.85-4.539,4.85
			c-2.787,0-4.542-1.855-4.542-4.85V25.129c0-9.385-4.126-14.34-12.69-14.34s-12.691,4.955-12.691,14.34v29.099
			c0,2.994-1.754,4.85-4.539,4.85c-2.789,0-4.543-1.855-4.543-4.85V24.822c0-16.096,10.732-21.874,21.773-21.874
			c11.041,0,21.771,5.778,21.771,21.874"/>
		<path clip-path="url(#SVGID_4_)" fill="#FFFFFF" d="M55.789,81.064c0,0.629-0.365,1.016-0.951,1.016s-0.949-0.387-0.949-1.016
			V66.271c0-0.623,0.363-1.014,0.949-1.014s0.951,0.391,0.951,1.014"/>
		<path clip-path="url(#SVGID_4_)" fill="#FFFFFF" d="M58.783,66.422c0.65,0,1.168,0.521,1.168,1.17s-0.518,1.168-1.168,1.168
			s-1.168-0.52-1.168-1.168S58.133,66.422,58.783,66.422 M59.736,81.064c0,0.629-0.367,1.016-0.953,1.016
			c-0.582,0-0.951-0.387-0.951-1.016v-9.73c0-0.629,0.369-1.016,0.951-1.016c0.586,0,0.953,0.387,0.953,1.016V81.064z"/>
		<path clip-path="url(#SVGID_4_)" fill="#FFFFFF" d="M61.762,71.982c-0.129-0.346-0.197-0.562-0.197-0.777
			c0-0.564,0.412-0.887,0.867-0.887c0.625,0,0.844,0.299,0.994,0.734l2.617,7.957h0.041l2.619-7.957
			c0.148-0.436,0.367-0.734,0.992-0.734c0.455,0,0.867,0.322,0.867,0.887c0,0.215-0.066,0.432-0.195,0.777l-3.309,9.279
			c-0.195,0.562-0.391,0.818-0.994,0.818c-0.607,0-0.803-0.256-0.996-0.818"/>
		<path clip-path="url(#SVGID_4_)" fill="#FFFFFF" d="M73.344,66.422c0.65,0,1.17,0.521,1.17,1.17s-0.52,1.168-1.17,1.168
			c-0.646,0-1.17-0.52-1.17-1.168S72.697,66.422,73.344,66.422 M74.295,81.064c0,0.629-0.367,1.016-0.951,1.016
			c-0.586,0-0.949-0.387-0.949-1.016v-9.73c0-0.629,0.363-1.016,0.949-1.016c0.584,0,0.951,0.387,0.951,1.016V81.064z"/>
		<path clip-path="url(#SVGID_4_)" fill="#FFFFFF" d="M76.404,71.334c0-0.629,0.367-1.016,0.953-1.016
			c0.584,0,0.951,0.387,0.951,1.016v0.453l0.041,0.043c0.844-1.08,2.035-1.512,3.182-1.512c1.771,0,4,1.121,4,4.369v6.377
			c0,0.629-0.371,1.016-0.953,1.016c-0.584,0-0.951-0.387-0.951-1.016v-6.273c0-2.008-1.406-2.828-2.658-2.828
			c-1.256,0-2.66,0.82-2.66,2.828v6.273c0,0.629-0.367,1.016-0.951,1.016c-0.586,0-0.953-0.387-0.953-1.016"/>
		<path clip-path="url(#SVGID_4_)" fill="#FFFFFF" d="M97.404,81.129c0,3.418-2.074,5.494-5.191,5.494
			c-1.967,0-4.408-1.125-4.408-2.098c0-0.389,0.193-0.885,0.799-0.885c0.867,0,1.705,1.338,3.762,1.338
			c2.422,0,3.137-1.902,3.137-3.549v-0.994h-0.045c-0.582,0.994-1.623,1.645-2.92,1.645c-3.24,0-5.061-2.832-5.061-5.883
			c0-3.049,1.82-5.879,5.061-5.879c1.232,0,2.422,0.758,2.92,1.447h0.045v-0.52c0-0.668,0.498-0.928,1.018-0.928
			c0.367,0,0.885,0.26,0.885,0.928 M92.537,80.436c2.338,0,3.16-2.291,3.16-4.238c0-1.943-0.822-4.234-3.16-4.234
			c-2.332,0-3.154,2.291-3.154,4.234C89.383,78.145,90.205,80.436,92.537,80.436z"/>
	</g>
</g>
</svg>
