<?xml version="1.0" encoding="utf-8"?>
<!-- Generator: Adobe Illustrator 18.1.1, SVG Export Plug-In . SVG Version: 6.00 Build 0)  -->
<svg version="1.1" id="Layer_1" xmlns="http://www.w3.org/2000/svg" xmlns:xlink="http://www.w3.org/1999/xlink" x="0px" y="0px"
	 viewBox="0 0 1190.6 841.9" enable-background="new 0 0 1190.6 841.9" xml:space="preserve">
<path fill="#E21C79" d="M25.5,104.2v633.5c0,59.5,39.3,104.2,110,104.2h613.9c239.7,0,415.6-189.7,415.6-421.5
	C1165,191.9,985.9,0,749.4,0H135.5C64.8,0,25.5,44.6,25.5,104.2"/>
<rect x="107.9" y="265.7" fill="none" width="1028.4" height="526.2"/>
<g enable-background="new    ">
	<path fill="#FFFFFF" d="M180.6,329L150,280.1c-1.5-2.3-2.2-4.2-2.2-5.8c0-1.8,0.6-3.2,1.8-4.2c1.2-1,2.7-1.5,4.6-1.5
		c1.3,0,2.5,0.3,3.7,0.9c1.2,0.6,2.3,1.8,3.4,3.5l26.4,42.3L214,273c1.1-1.8,2.2-3,3.4-3.5c1.2-0.6,2.4-0.9,3.7-0.9
		c1.8,0,3.3,0.5,4.6,1.5c1.2,1,1.8,2.4,1.8,4.2c0,1.6-0.7,3.5-2.2,5.8L194.7,329v46.1c0,2.3-0.6,4.1-1.9,5.4s-3,2-5.1,2
		c-2.1,0-3.8-0.7-5.1-2c-1.3-1.3-1.9-3.1-1.9-5.4V329z"/>
	<path fill="#FFFFFF" d="M235.7,324c1.7-5.1,4.1-9.6,7.3-13.6s7.1-7.1,11.8-9.5c4.6-2.3,9.9-3.5,15.9-3.5c6,0,11.3,1.2,15.9,3.5
		c4.6,2.3,8.6,5.5,11.8,9.5c3.2,4,5.6,8.5,7.3,13.6c1.7,5.1,2.5,10.4,2.5,16c0,5.5-0.8,10.8-2.5,16c-1.7,5.1-4.1,9.6-7.3,13.6
		c-3.2,4-7.1,7.1-11.8,9.5c-4.6,2.3-9.9,3.5-15.9,3.5c-6,0-11.3-1.2-15.9-3.5c-4.6-2.3-8.6-5.5-11.8-9.5s-5.6-8.5-7.3-13.6
		c-1.7-5.1-2.5-10.4-2.5-16C233.2,334.5,234.1,329.1,235.7,324z M248.5,350.6c0.8,3.6,2.1,6.8,4,9.8c1.9,2.9,4.3,5.4,7.3,7.2
		c3,1.9,6.6,2.8,10.9,2.8c4.4,0,8-0.9,11-2.8c2.9-1.9,5.3-4.3,7.2-7.2c1.9-2.9,3.2-6.2,4-9.8s1.2-7.1,1.2-10.6
		c0-3.5-0.4-7.1-1.2-10.6s-2.1-6.8-4-9.8c-1.9-2.9-4.3-5.4-7.2-7.2c-2.9-1.9-6.6-2.8-11-2.8c-4.3,0-7.9,0.9-10.9,2.8
		c-3,1.9-5.4,4.3-7.3,7.2c-1.9,2.9-3.2,6.2-4,9.8c-0.8,3.6-1.2,7.1-1.2,10.6C247.3,343.5,247.7,347,248.5,350.6z"/>
	<path fill="#FFFFFF" d="M323,304.8c0-2.3,0.6-4.1,1.9-5.4c1.3-1.3,3-2,5.1-2c2.1,0,3.8,0.6,5.1,1.9c1.3,1.3,1.9,3.1,1.9,5.4v44
		c0,14.4,6.6,21.7,19.7,21.7c13.1,0,19.7-7.2,19.7-21.7v-44c0-2.3,0.6-4.1,1.9-5.4s3-1.9,5.1-1.9c2.1,0,3.8,0.7,5.1,2
		c1.3,1.3,1.9,3.1,1.9,5.4v44.6c0,6-1,11.2-2.9,15.4s-4.5,7.7-7.6,10.3c-3.1,2.7-6.7,4.6-10.8,5.7c-4.1,1.1-8.2,1.7-12.5,1.7
		c-4.3,0-8.4-0.6-12.5-1.7c-4.1-1.1-7.7-3.1-10.8-5.7c-3.1-2.7-5.7-6.1-7.6-10.3s-2.9-9.4-2.9-15.4V304.8z"/>
	<path fill="#FFFFFF" d="M504.8,370.9h-0.3c-4.1,7.8-11.6,11.7-22.7,11.7c-5.8,0-10.9-1.2-15.4-3.5c-4.5-2.3-8.3-5.5-11.4-9.5
		c-3.1-4-5.5-8.5-7.1-13.6c-1.6-5.1-2.4-10.4-2.4-16c0-5.5,0.8-10.8,2.4-16c1.6-5.1,4-9.6,7.1-13.6c3.1-4,7-7.1,11.4-9.5
		c4.5-2.3,9.6-3.5,15.4-3.5c2.8,0,5.4,0.3,7.8,1c2.4,0.7,4.6,1.6,6.5,2.7c1.9,1.1,3.6,2.4,5,3.8c1.4,1.4,2.6,2.7,3.5,4h0.3v-42.3
		c0-2.4,0.6-4.3,1.9-5.6c1.3-1.4,3-2,5.1-2c2.1,0,3.8,0.7,5.1,2c1.3,1.3,1.9,3.1,1.9,5.5v108.6c0,2.3-0.6,4.2-1.9,5.5
		c-1.3,1.3-3,2-5.1,2c-2.1,0-3.8-0.7-5.1-2c-1.3-1.3-1.9-3.2-1.9-5.5V370.9z M505,329.4c-0.8-3.6-2.1-6.8-4-9.8
		c-1.9-2.9-4.3-5.4-7.2-7.2c-2.9-1.9-6.6-2.8-11-2.8c-4.3,0-7.9,0.9-10.9,2.8c-3,1.9-5.4,4.3-7.3,7.2c-1.9,2.9-3.2,6.2-4,9.8
		c-0.8,3.6-1.2,7.1-1.2,10.6c0,3.5,0.4,7.1,1.2,10.6c0.8,3.6,2.1,6.8,4,9.8c1.9,2.9,4.3,5.4,7.3,7.2c3,1.9,6.6,2.8,10.9,2.8
		c4.4,0,8-0.9,11-2.8c2.9-1.9,5.3-4.3,7.2-7.2c1.9-2.9,3.2-6.2,4-9.8s1.2-7.1,1.2-10.6C506.2,336.5,505.8,332.9,505,329.4z"/>
	<path fill="#FFFFFF" d="M547,345.4c0,3.5,0.6,6.8,1.7,9.8c1.1,3,2.8,5.7,5,7.9c2.2,2.3,4.8,4,7.9,5.3c3.1,1.3,6.6,1.9,10.6,1.9
		c4.7,0,8.6-0.6,11.7-1.8c3.1-1.2,5.7-2.6,7.8-4s3.8-2.7,5.3-3.9c1.4-1.2,2.8-1.8,4.1-1.8s2.5,0.5,3.5,1.6c1.1,1.1,1.6,2.6,1.6,4.6
		c0,1.7-1,3.6-3,5.6c-2,2-4.6,3.9-7.8,5.7c-3.3,1.8-6.9,3.2-11,4.4c-4.1,1.2-8.2,1.8-12.3,1.8c-6.8,0-12.7-1.2-17.6-3.5
		c-4.9-2.3-9-5.5-12.2-9.5s-5.5-8.5-7-13.6c-1.5-5.1-2.2-10.4-2.2-16c0-5.6,0.9-11,2.6-16.2c1.8-5.2,4.3-9.7,7.5-13.6
		c3.3-3.9,7.3-7,12-9.3c4.7-2.3,10.1-3.4,16.1-3.4c5.8,0,10.9,1.2,15.5,3.5c4.6,2.4,8.4,5.4,11.5,9.3c3.1,3.8,5.5,8.2,7.1,13
		c1.7,4.9,2.5,9.8,2.5,14.8c0,2.4-0.5,4.2-1.6,5.5s-3.1,1.9-6.2,1.9H547z M593.7,334.9c0-3-0.5-6-1.4-8.9c-0.9-3-2.3-5.7-4.1-8.1
		c-1.8-2.4-4.2-4.4-7-5.9c-2.9-1.5-6.2-2.3-10.1-2.3c-4.4-0.2-8.1,0.4-11,1.9c-3,1.5-5.4,3.4-7.4,5.9s-3.3,5.2-4.2,8.2
		c-0.9,3.1-1.4,6.2-1.5,9.2H593.7z"/>
	<path fill="#FFFFFF" d="M621.9,310.7c1.7-2.9,3.9-5.4,6.6-7.3c2.7-2,5.8-3.5,9.3-4.4c3.5-1,7-1.5,10.5-1.5c2.9,0,6,0.4,9.4,1.1
		c3.4,0.7,6.4,1.8,9.2,3.1c2.8,1.3,5.1,2.9,7,4.7c1.9,1.8,2.8,3.8,2.8,6.1c0,1.5-0.5,2.8-1.6,4c-1.1,1.2-2.7,1.8-4.8,1.8
		c-1.5,0-2.9-0.5-4.1-1.4c-1.2-0.9-2.6-1.9-4.1-3c-1.5-1.1-3.3-2.1-5.4-3c-2.1-0.9-4.9-1.4-8.3-1.4c-4.1,0-7.5,0.9-10.5,2.6
		c-2.9,1.7-4.4,4.3-4.4,7.9c0,2.4,1.1,4.4,3.4,6.1c2.2,1.7,5,3.2,8.4,4.6c3.4,1.4,7,2.8,11,4.2c3.9,1.4,7.6,3.1,11,5
		c3.4,1.9,6.2,4.2,8.4,6.9c2.2,2.7,3.4,6.1,3.4,10.1c0,4.4-0.9,8.1-2.6,11.3c-1.8,3.2-4.1,5.8-7,8c-2.9,2.1-6.2,3.7-9.9,4.8
		c-3.7,1-7.6,1.6-11.5,1.6c-4.5,0-8.7-0.5-12.6-1.5c-3.9-1-7.3-2.3-10.2-3.8c-2.9-1.5-5.1-3.3-6.8-5.2c-1.7-1.9-2.5-3.8-2.5-5.6
		c0-1.9,0.6-3.5,1.8-4.6c1.2-1.2,2.5-1.8,4-1.8c1.6,0,3.1,0.5,4.6,1.6c1.5,1.1,3.3,2.3,5.3,3.6c2,1.3,4.4,2.5,7,3.6
		c2.7,1.1,5.9,1.6,9.8,1.6c5.1,0,9.1-1.2,12.1-3.5c2.9-2.3,4.4-4.9,4.4-7.7c0-2.7-1.1-5-3.4-6.9c-2.2-1.9-5-3.6-8.4-5.1
		c-3.4-1.6-7-3.1-11-4.6c-3.9-1.5-7.6-3.2-11-5.1c-3.4-1.9-6.2-4.2-8.4-6.9c-2.2-2.6-3.4-5.9-3.4-9.7S620.2,313.6,621.9,310.7z"/>
	<path fill="#FFFFFF" d="M693.1,271.1c1.7-1.7,3.7-2.5,6.2-2.5c2.5,0,4.5,0.8,6.2,2.5c1.7,1.7,2.5,3.7,2.5,6.2
		c0,2.5-0.8,4.5-2.5,6.2c-1.7,1.7-3.7,2.5-6.2,2.5c-2.5,0-4.5-0.8-6.2-2.5c-1.7-1.7-2.5-3.7-2.5-6.2
		C690.7,274.8,691.5,272.8,693.1,271.1z M706.3,375.2c0,2.3-0.6,4.1-1.9,5.4c-1.3,1.3-3,2-5.1,2c-2.1,0-3.8-0.6-5.1-2
		c-1.3-1.3-1.9-3.1-1.9-5.4v-70.4c0-2.3,0.6-4.1,1.9-5.4c1.3-1.3,3-2,5.1-2c2.1,0,3.8,0.7,5.1,2c1.3,1.3,1.9,3.1,1.9,5.4V375.2z"/>
	<path fill="#FFFFFF" d="M794.7,376.8c0,6.2-0.9,11.8-2.7,16.8c-1.8,5-4.4,9.2-7.8,12.7c-3.4,3.5-7.4,6.2-12.2,8
		c-4.7,1.8-10,2.8-15.8,2.8c-3.6,0-7.4-0.5-11.2-1.4s-7.4-2.2-10.6-3.7c-3.2-1.5-5.8-3.1-7.8-5c-2-1.8-3-3.6-3-5.4
		c0-1.5,0.4-3,1.3-4.4c0.9-1.4,2.4-2.2,4.6-2.2c1.6,0,3.2,0.5,4.9,1.5c1.7,1,3.5,2.2,5.7,3.4c2.1,1.3,4.6,2.4,7.4,3.4
		c2.8,1,6.1,1.5,9.9,1.5c4.5,0,8.2-0.8,11.2-2.4c3-1.6,5.4-3.6,7.1-6.1c1.8-2.5,3-5.2,3.8-8.3c0.7-3.1,1.1-6.1,1.1-9.2v-7.3h-0.3
		c-2.1,3.3-5.1,6-8.8,7.9c-3.7,1.9-8,2.9-12.8,2.9c-6,0-11.3-1.2-15.9-3.5c-4.6-2.3-8.6-5.5-11.8-9.5s-5.6-8.5-7.3-13.6
		c-1.7-5.1-2.5-10.4-2.5-16c0-5.5,0.8-10.8,2.5-16c1.7-5.1,4.1-9.6,7.3-13.6s7.1-7.1,11.8-9.5c4.6-2.3,9.9-3.5,15.9-3.5
		c2.2,0,4.5,0.3,6.6,1c2.2,0.6,4.2,1.5,6.2,2.5c1.9,1,3.6,2.2,5.1,3.4c1.5,1.3,2.7,2.6,3.7,3.8h0.3v-3.8c0-2.5,0.8-4.2,2.3-5.3
		c1.5-1.1,3.3-1.6,5.2-1.6c1.4,0,2.8,0.5,4.3,1.6c1.5,1.1,2.2,2.8,2.2,5.2V376.8z M736.5,350.6c0.8,3.6,2.1,6.8,4,9.8
		c1.9,2.9,4.3,5.4,7.3,7.2c3,1.9,6.6,2.8,10.9,2.8c4.4,0,8-0.9,11-2.8c2.9-1.9,5.3-4.3,7.2-7.2c1.9-2.9,3.2-6.2,4-9.8
		s1.2-7.1,1.2-10.6c0-3.5-0.4-7.1-1.2-10.6s-2.1-6.8-4-9.8c-1.9-2.9-4.3-5.4-7.2-7.2c-2.9-1.9-6.6-2.8-11-2.8
		c-4.3,0-7.9,0.9-10.9,2.8c-3,1.9-5.4,4.3-7.3,7.2c-1.9,2.9-3.2,6.2-4,9.8s-1.2,7.1-1.2,10.6C735.3,343.5,735.7,347,736.5,350.6z"/>
	<path fill="#FFFFFF" d="M813.9,304.8c0-2.3,0.6-4.1,1.9-5.4c1.3-1.3,3-2,5.1-2c2.1,0,3.8,0.7,5.1,2c1.3,1.3,1.9,3.2,1.9,5.5v3.4
		l0.3,0.3c3.1-4.1,6.7-6.9,10.9-8.6c4.2-1.7,8.4-2.6,12.6-2.6c3.3,0,6.7,0.5,10.2,1.6c3.5,1.1,6.6,2.9,9.5,5.4s5.3,5.8,7.1,9.8
		c1.9,4,2.8,8.9,2.8,14.8v46.2c0,2.3-0.6,4.1-1.9,5.4c-1.3,1.3-3,2-5.1,2c-2.1,0-3.8-0.6-5.1-1.9c-1.3-1.3-1.9-3.1-1.9-5.4V330
		c0-3.6-0.6-6.8-1.8-9.4c-1.2-2.6-2.7-4.7-4.6-6.3c-1.9-1.6-4-2.8-6.3-3.6c-2.3-0.8-4.7-1.2-7-1.2c-2.3,0-4.7,0.4-7,1.2
		c-2.3,0.8-4.5,2-6.3,3.6c-1.9,1.6-3.4,3.7-4.6,6.3c-1.2,2.6-1.8,5.7-1.8,9.4v45.2c0,2.3-0.6,4.1-1.9,5.4c-1.3,1.3-3,1.9-5.1,1.9
		c-2.1,0-3.8-0.6-5.1-2c-1.3-1.3-1.9-3.1-1.9-5.4V304.8z"/>
	<path fill="#FFFFFF" d="M904.9,368.6c1.6-1.6,3.5-2.4,5.8-2.4s4.2,0.8,5.8,2.4s2.4,3.5,2.4,5.8s-0.8,4.2-2.4,5.8s-3.5,2.4-5.8,2.4
		s-4.2-0.8-5.8-2.4s-2.4-3.5-2.4-5.8S903.3,370.2,904.9,368.6z"/>
</g>
<g enable-background="new    ">
	<path fill="#FFFFFF" d="M156.9,496.1c0-2.3,0.6-4.1,1.9-5.4c1.3-1.3,3-2,5.1-2c2.1,0,3.8,0.7,5.1,2c1.3,1.3,1.9,3.2,1.9,5.5v3.4
		l0.3,0.3c3.1-4.1,6.7-6.9,10.9-8.6c4.2-1.7,8.4-2.6,12.6-2.6c3.3,0,6.7,0.5,10.2,1.6c3.5,1.1,6.6,2.9,9.5,5.4s5.3,5.8,7.1,9.8
		c1.9,4,2.8,8.9,2.8,14.8v46.2c0,2.3-0.6,4.1-1.9,5.4c-1.3,1.3-3,2-5.1,2c-2.1,0-3.8-0.6-5.1-1.9s-1.9-3.1-1.9-5.4v-45.2
		c0-3.6-0.6-6.8-1.8-9.4c-1.2-2.6-2.7-4.7-4.6-6.3c-1.9-1.6-4-2.8-6.3-3.6c-2.3-0.8-4.7-1.2-7-1.2c-2.3,0-4.7,0.4-7,1.2
		c-2.3,0.8-4.5,2-6.3,3.6c-1.9,1.6-3.4,3.7-4.6,6.3c-1.2,2.6-1.8,5.7-1.8,9.4v45.2c0,2.3-0.6,4.1-1.9,5.4c-1.3,1.3-3,1.9-5.1,1.9
		c-2.1,0-3.8-0.7-5.1-2c-1.3-1.3-1.9-3.1-1.9-5.4V496.1z"/>
	<path fill="#FFFFFF" d="M243,496.1c0-2.3,0.6-4.1,1.9-5.4c1.3-1.3,3-2,5.1-2c2.1,0,3.8,0.6,5.1,1.9c1.3,1.3,1.9,3.1,1.9,5.4v44
		c0,14.4,6.6,21.7,19.7,21.7c13.1,0,19.7-7.2,19.7-21.7v-44c0-2.3,0.6-4.1,1.9-5.4c1.3-1.3,3-1.9,5.1-1.9c2.1,0,3.8,0.7,5.1,2
		c1.3,1.3,1.9,3.1,1.9,5.4v44.6c0,6-1,11.2-2.9,15.4c-1.9,4.2-4.5,7.7-7.6,10.3c-3.1,2.7-6.7,4.6-10.8,5.7
		c-4.1,1.1-8.2,1.7-12.5,1.7c-4.3,0-8.4-0.6-12.5-1.7c-4.1-1.1-7.7-3.1-10.8-5.7c-3.1-2.7-5.7-6.1-7.6-10.3
		c-1.9-4.2-2.9-9.4-2.9-15.4V496.1z"/>
	<path fill="#FFFFFF" d="M369.7,457.8c0-2.3,0.6-4.2,1.9-5.5c1.3-1.3,3-2,5.1-2c2.1,0,3.8,0.7,5.1,2c1.3,1.4,1.9,3.2,1.9,5.6v42.3
		h0.3c1-1.3,2.1-2.6,3.5-4c1.4-1.4,3-2.6,5-3.8s4.1-2,6.5-2.7c2.4-0.7,5-1,7.8-1c5.8,0,10.9,1.2,15.4,3.5c4.5,2.3,8.3,5.5,11.4,9.5
		c3.1,4,5.5,8.5,7.1,13.6c1.6,5.1,2.4,10.4,2.4,16c0,5.5-0.8,10.8-2.4,16c-1.6,5.1-4,9.6-7.1,13.6c-3.1,4-7,7.1-11.4,9.5
		c-4.5,2.3-9.6,3.5-15.4,3.5c-11.1,0-18.7-3.9-22.7-11.7h-0.3v4.2c0,2.3-0.6,4.2-1.9,5.5c-1.3,1.3-3,2-5.1,2c-2.1,0-3.8-0.7-5.1-2
		c-1.3-1.3-1.9-3.1-1.9-5.5V457.8z M383.6,541.9c0.8,3.6,2.1,6.8,4,9.8c1.9,2.9,4.3,5.4,7.3,7.2c3,1.9,6.6,2.8,10.9,2.8
		c4.4,0,8-0.9,11-2.8c2.9-1.9,5.3-4.3,7.2-7.2c1.9-2.9,3.2-6.2,4-9.8s1.2-7.1,1.2-10.6c0-3.5-0.4-7.1-1.2-10.6s-2.1-6.8-4-9.8
		c-1.9-2.9-4.3-5.4-7.2-7.2c-2.9-1.9-6.6-2.8-11-2.8c-4.3,0-7.9,0.9-10.9,2.8c-3,1.9-5.4,4.3-7.3,7.2c-1.9,2.9-3.2,6.2-4,9.8
		c-0.8,3.6-1.2,7.1-1.2,10.6C382.4,534.8,382.8,538.4,383.6,541.9z"/>
	<path fill="#FFFFFF" d="M458,496.1c0-2.3,0.6-4.1,1.9-5.4c1.3-1.3,3-2,5.1-2c2.1,0,3.8,0.6,5.1,1.9c1.3,1.3,1.9,3.1,1.9,5.4v44
		c0,14.4,6.6,21.7,19.7,21.7c13.1,0,19.7-7.2,19.7-21.7v-44c0-2.3,0.6-4.1,1.9-5.4c1.3-1.3,3-1.9,5.1-1.9c2.1,0,3.8,0.7,5.1,2
		c1.3,1.3,1.9,3.1,1.9,5.4v44.6c0,6-1,11.2-2.9,15.4c-1.9,4.2-4.5,7.7-7.6,10.3c-3.1,2.7-6.7,4.6-10.8,5.7
		c-4.1,1.1-8.2,1.7-12.5,1.7c-4.3,0-8.4-0.6-12.5-1.7c-4.1-1.1-7.7-3.1-10.8-5.7c-3.1-2.7-5.7-6.1-7.6-10.3
		c-1.9-4.2-2.9-9.4-2.9-15.4V496.1z"/>
	<path fill="#FFFFFF" d="M545,462.4c1.7-1.7,3.7-2.5,6.2-2.5c2.5,0,4.5,0.8,6.2,2.5c1.7,1.7,2.5,3.7,2.5,6.2c0,2.5-0.8,4.5-2.5,6.2
		c-1.7,1.7-3.7,2.5-6.2,2.5c-2.5,0-4.5-0.8-6.2-2.5c-1.7-1.7-2.5-3.7-2.5-6.2C542.5,466.1,543.3,464.1,545,462.4z M558.2,566.5
		c0,2.3-0.6,4.1-1.9,5.4c-1.3,1.3-3,2-5.1,2c-2.1,0-3.8-0.7-5.1-2c-1.3-1.3-1.9-3.1-1.9-5.4v-70.4c0-2.3,0.6-4.1,1.9-5.4
		c1.3-1.3,3-2,5.1-2c2.1,0,3.8,0.7,5.1,2c1.3,1.3,1.9,3.1,1.9,5.4V566.5z"/>
	<path fill="#FFFFFF" d="M590.8,566.4c0,2.3-0.6,4.2-1.9,5.5c-1.3,1.3-3,2-5.1,2c-2.1,0-3.8-0.7-5.1-2c-1.3-1.3-1.9-3.1-1.9-5.5
		V457.8c0-2.3,0.6-4.2,1.9-5.5c1.3-1.3,3-2,5.1-2c2.1,0,3.8,0.7,5.1,2c1.3,1.3,1.9,3.2,1.9,5.5V566.4z"/>
	<path fill="#FFFFFF" d="M665.1,562.2h-0.3c-4.1,7.8-11.6,11.7-22.7,11.7c-5.8,0-10.9-1.2-15.4-3.5c-4.5-2.3-8.3-5.5-11.4-9.5
		c-3.1-4-5.5-8.5-7.1-13.6c-1.6-5.1-2.4-10.4-2.4-16c0-5.5,0.8-10.8,2.4-16c1.6-5.1,4-9.6,7.1-13.6c3.1-4,7-7.1,11.4-9.5
		c4.5-2.3,9.6-3.5,15.4-3.5c2.8,0,5.4,0.3,7.8,1c2.4,0.7,4.6,1.6,6.5,2.7s3.6,2.4,5,3.8c1.4,1.4,2.6,2.7,3.5,4h0.3V458
		c0-2.4,0.6-4.3,1.9-5.6c1.3-1.4,3-2,5.1-2c2.1,0,3.8,0.7,5.1,2c1.3,1.3,1.9,3.2,1.9,5.5v108.6c0,2.3-0.6,4.2-1.9,5.5
		c-1.3,1.3-3,2-5.1,2c-2.1,0-3.8-0.7-5.1-2c-1.3-1.3-1.9-3.2-1.9-5.5V562.2z M665.3,520.7c-0.8-3.6-2.1-6.8-4-9.8
		c-1.9-2.9-4.3-5.4-7.2-7.2c-2.9-1.9-6.6-2.8-11-2.8c-4.3,0-7.9,0.9-10.9,2.8c-3,1.9-5.4,4.3-7.3,7.2c-1.9,2.9-3.2,6.2-4,9.8
		s-1.2,7.1-1.2,10.6c0,3.5,0.4,7.1,1.2,10.6s2.1,6.8,4,9.8c1.9,2.9,4.3,5.4,7.3,7.2c3,1.9,6.6,2.8,10.9,2.8c4.4,0,8-0.9,11-2.8
		c2.9-1.9,5.3-4.3,7.2-7.2c1.9-2.9,3.2-6.2,4-9.8s1.2-7.1,1.2-10.6C666.5,527.8,666.1,524.3,665.3,520.7z"/>
	<path fill="#FFFFFF" d="M703.3,559.9c1.6-1.6,3.5-2.4,5.8-2.4s4.2,0.8,5.8,2.4c1.6,1.6,2.4,3.5,2.4,5.8c0,2.2-0.8,4.2-2.4,5.8
		c-1.6,1.6-3.5,2.4-5.8,2.4s-4.2-0.8-5.8-2.4c-1.6-1.6-2.4-3.5-2.4-5.8C700.9,563.5,701.7,561.5,703.3,559.9z"/>
</g>
</svg>
